bin/wave.vcd
$date
	Sat Dec 23 20:15:30 2023
$end
$version
	Icarus Verilog
$end
$timescale
	1s
$end
$scope module arch_tb $end
$var reg 1 ! clk $end
$scope module arch_inst $end
$var wire 1 ! clk $end
$var wire 1 " zero $end
$var wire 32 # writeData_R [31:0] $end
$var wire 1 $ u_less $end
$var wire 1 % s_less $end
$var wire 32 & readData_M [31:0] $end
$var wire 32 ' readData2_R [31:0] $end
$var wire 32 ( readData1_R [31:0] $end
$var wire 32 ) instruction [31:0] $end
$var wire 32 * imm [31:0] $end
$var wire 32 + aluResult [31:0] $end
$var wire 4 , aluControl [3:0] $end
$var wire 32 - aluB [31:0] $end
$var wire 32 . aluA [31:0] $end
$var wire 1 / RegWrite $end
$var wire 32 0 PCnext [31:0] $end
$var wire 32 1 PCincre [31:0] $end
$var wire 32 2 PCaddress [31:0] $end
$var wire 1 3 MemWrite $end
$var wire 1 4 MemRead $end
$var wire 1 5 Lui $end
$var wire 1 6 JumpReg $end
$var wire 1 7 Jump $end
$var wire 1 8 Halt $end
$var wire 1 9 Cnd $end
$var wire 1 : Branch $end
$var wire 1 ; Auipc $end
$var wire 1 < ALUSrc $end
$var wire 2 = ALUOp [1:0] $end
$scope module u_ALU $end
$var wire 1 " zero $end
$var wire 1 $ u_less $end
$var wire 1 % s_less $end
$var wire 4 > aluControl [3:0] $end
$var wire 32 ? aluB [31:0] $end
$var wire 32 @ aluA [31:0] $end
$var reg 32 A aluResult [31:0] $end
$upscope $end
$scope module u_ALUControl $end
$var wire 3 B funct3 [2:0] $end
$var wire 1 C funct7_30 $end
$var wire 2 D ALUOp [1:0] $end
$var reg 4 E aluControl [3:0] $end
$upscope $end
$scope module u_ALU_A $end
$var wire 32 F readData1_R [31:0] $end
$var wire 32 G PCaddress [31:0] $end
$var wire 1 5 Lui $end
$var wire 1 ; Auipc $end
$var reg 32 H aluA [31:0] $end
$upscope $end
$scope module u_ALU_B $end
$var wire 32 I readData2_R [31:0] $end
$var wire 32 J imm [31:0] $end
$var wire 1 < ALUSrc $end
$var reg 32 K aluB [31:0] $end
$upscope $end
$scope module u_Branch $end
$var wire 3 L funct3 [2:0] $end
$var wire 1 % s_less $end
$var wire 1 $ u_less $end
$var wire 1 " zero $end
$var wire 1 : Branch $end
$var reg 1 9 Cnd $end
$upscope $end
$scope module u_Control $end
$var wire 7 M Opcode [6:0] $end
$var wire 1 / RegWrite $end
$var wire 1 3 MemWrite $end
$var wire 1 4 MemRead $end
$var wire 1 5 Lui $end
$var wire 1 6 JumpReg $end
$var wire 1 7 Jump $end
$var wire 1 : Branch $end
$var wire 1 ; Auipc $end
$var wire 1 < ALUSrc $end
$var wire 2 N ALUOp [1:0] $end
$var reg 1 8 Halt $end
$var reg 11 O control [10:0] $end
$upscope $end
$scope module u_ImmGen $end
$var wire 32 P instruction [31:0] $end
$var wire 7 Q Opcode [6:0] $end
$var reg 32 R imm [31:0] $end
$upscope $end
$scope module u_InstMem $end
$var wire 32 S instruction [31:0] $end
$var wire 32 T PCaddress [31:0] $end
$upscope $end
$scope module u_Mem $end
$var wire 1 4 MemRead $end
$var wire 1 3 MemWrite $end
$var wire 1 ! clk $end
$var wire 3 U funct3 [2:0] $end
$var wire 32 V memAddr [31:0] $end
$var wire 32 W writeData_M [31:0] $end
$var reg 32 X readData_M [31:0] $end
$upscope $end
$scope module u_PC $end
$var wire 1 ! clk $end
$var wire 32 Y PCnext [31:0] $end
$var reg 32 Z PCaddress [31:0] $end
$upscope $end
$scope module u_PCIncre $end
$var wire 32 [ PCaddress [31:0] $end
$var wire 32 \ PCincre [31:0] $end
$upscope $end
$scope module u_PCNext $end
$var wire 1 9 Cnd $end
$var wire 1 8 Halt $end
$var wire 1 7 Jump $end
$var wire 1 6 JumpReg $end
$var wire 32 ] PCaddress [31:0] $end
$var wire 32 ^ PCincre [31:0] $end
$var wire 32 _ aluResult [31:0] $end
$var wire 32 ` imm [31:0] $end
$var reg 32 a PCnext [31:0] $end
$upscope $end
$scope module u_RegWrite $end
$var wire 1 7 Jump $end
$var wire 1 6 JumpReg $end
$var wire 1 4 MemRead $end
$var wire 32 b PCincre [31:0] $end
$var wire 32 c aluResult [31:0] $end
$var wire 32 d readData_M [31:0] $end
$var reg 32 e writeData_R [31:0] $end
$upscope $end
$scope module u_Regs $end
$var wire 1 / RegWrite $end
$var wire 32 f a0 [31:0] $end
$var wire 32 g a1 [31:0] $end
$var wire 32 h a2 [31:0] $end
$var wire 32 i a3 [31:0] $end
$var wire 32 j a4 [31:0] $end
$var wire 32 k a5 [31:0] $end
$var wire 32 l a6 [31:0] $end
$var wire 32 m a7 [31:0] $end
$var wire 1 ! clk $end
$var wire 32 n gp [31:0] $end
$var wire 32 o ra [31:0] $end
$var wire 32 p readData1_R [31:0] $end
$var wire 32 q readData2_R [31:0] $end
$var wire 5 r readReg1 [4:0] $end
$var wire 5 s readReg2 [4:0] $end
$var wire 32 t s0 [31:0] $end
$var wire 32 u s1 [31:0] $end
$var wire 32 v sp [31:0] $end
$var wire 32 w t0 [31:0] $end
$var wire 32 x t1 [31:0] $end
$var wire 32 y t2 [31:0] $end
$var wire 32 z tp [31:0] $end
$var wire 32 { writeData_R [31:0] $end
$var wire 5 | writeReg [4:0] $end
$var wire 32 } x0 [31:0] $end
$var integer 32 ~ i [31:0] $end
$upscope $end
$upscope $end
$upscope $end
$enddefinitions $end
#0
$dumpvars
b100000 ~
b0 }
b10 |
b11011110000 {
b0 z
b0 y
b0 x
b0 w
b11100000000 v
b0 u
b0 t
b10000 s
b10 r
b0 q
b11100000000 p
b0 o
b0 n
b0 m
b0 l
b0 k
b0 j
b0 i
b0 h
b0 g
b0 f
b11011110000 e
bx d
b11011110000 c
b111101000 b
b111101000 a
b11111111111111111111111111110000 `
b11011110000 _
b111101000 ^
b111100100 ]
b111101000 \
b111100100 [
b111100100 Z
b111101000 Y
bx X
b0 W
b11011110000 V
b0 U
b111100100 T
b11111111000000010000000100010011 S
b11111111111111111111111111110000 R
b10011 Q
b11111111000000010000000100010011 P
b11110000000 O
b11 N
b10011 M
b0 L
b11111111111111111111111111110000 K
b11111111111111111111111111110000 J
b0 I
b11100000000 H
b111100100 G
b11100000000 F
b10 E
b11 D
1C
b0 B
b11011110000 A
b11100000000 @
b11111111111111111111111111110000 ?
b10 >
b11 =
1<
0;
0:
09
08
07
06
05
04
03
b111100100 2
b111101000 1
b111101000 0
1/
b11100000000 .
b11111111111111111111111111110000 -
b10 ,
b11011110000 +
b11111111111111111111111111110000 *
b11111111000000010000000100010011 )
b11100000000 (
b0 '
bx &
0%
1$
b11011110000 #
0"
0!
$end
#5
0"
b11011111100 #
b11011111100 e
b11011111100 {
0/
b0 =
b0 D
b0 N
13
0$
b1100 -
b1100 ?
b1100 K
b10 ,
b10 >
b10 E
b1000100000 O
b1100 *
b1100 J
b1100 R
b1100 `
b11011111100 +
b11011111100 A
b11011111100 V
b11011111100 _
b11011111100 c
b111101100 0
b111101100 Y
b111101100 a
b100011 Q
b10 U
b10 L
b10 B
0C
b1100 |
b1 s
b100011 M
b100010010011000100011 )
b100010010011000100011 P
b100010010011000100011 S
b11011110000 .
b11011110000 @
b11011110000 H
b111101100 1
b111101100 \
b111101100 ^
b111101100 b
b111101000 2
b111101000 G
b111101000 T
b111101000 Z
b111101000 [
b111101000 ]
b11011110000 (
b11011110000 F
b11011110000 p
b11011110000 v
1!
#10
0!
#15
b1 #
b1 e
b1 {
1/
b11 =
b11 D
b11 N
03
b1 -
b1 ?
b1 K
b1 +
b1 A
b1 V
b1 _
b1 c
b11110000000 O
b1 *
b1 J
b1 R
b1 `
b111110000 0
b111110000 Y
b111110000 a
1$
1%
b0 .
b0 @
b0 H
b10011 Q
b0 U
b0 L
b0 B
b1111 |
b0 (
b0 F
b0 p
b0 r
b10011 M
b100000000011110010011 )
b100000000011110010011 P
b100000000011110010011 S
b111110000 1
b111110000 \
b111110000 ^
b111110000 b
b111101100 2
b111101100 G
b111101100 T
b111101100 Z
b111101100 [
b111101100 ]
1!
#20
0!
#25
b0 #
b0 e
b0 {
1"
b0 +
b0 A
b0 V
b0 _
b0 c
0$
0%
b0 -
b0 ?
b0 K
b0 *
b0 J
b0 R
b0 `
b111110100 0
b111110100 Y
b111110100 a
b1010 |
b0 s
b10100010011 )
b10100010011 P
b10100010011 S
b111110100 1
b111110100 \
b111110100 ^
b111110100 b
b111110000 2
b111110000 G
b111110000 T
b111110000 Z
b111110000 [
b111110000 ]
b1 k
1!
#30
0!
#35
b111111000 #
b111111000 e
b111111000 {
0"
b1100 +
b1100 A
b1100 V
b1100 _
b1100 c
x<
bx =
bx D
bx N
17
1$
1%
b1100 -
b1100 ?
b1100 K
b1xxx0001000 O
b1100 *
b1100 J
b1100 R
b1100 `
b1000000000 0
b1000000000 Y
b1000000000 a
b1101111 Q
b0 |
b1100 s
b1101111 M
b110000000000000001101111 )
b110000000000000001101111 P
b110000000000000001101111 S
b111111000 1
b111111000 \
b111111000 ^
b111111000 b
b111110100 2
b111110100 G
b111110100 T
b111110100 Z
b111110100 [
b111110100 ]
1!
#40
0!
#45
b101 +
b101 A
b101 V
b101 _
b101 c
1<
b11 =
b11 D
b11 N
07
b101 -
b101 ?
b101 K
b11110000000 O
b101 *
b101 J
b101 R
b101 `
b101 #
b101 e
b101 {
b1000000100 0
b1000000100 Y
b1000000100 a
b10011 Q
b1110 |
b101 s
b10011 M
b10100000000011100010011 )
b10100000000011100010011 P
b10100000000011100010011 S
b1000000100 1
b1000000100 \
b1000000100 ^
b1000000100 b
b1000000000 2
b1000000000 G
b1000000000 T
b1000000000 Z
b1000000000 [
b1000000000 ]
1!
#50
0!
#55
19
b100 #
b100 e
b100 {
0"
0/
0<
b1 =
b1 D
b1 N
1:
b1 -
b1 ?
b1 K
b100 +
b100 A
b100 V
b100 _
b100 c
b110 ,
b110 >
b110 E
b10010000 O
b11111111111111111111111111110100 *
b11111111111111111111111111110100 J
b11111111111111111111111111110100 R
b11111111111111111111111111110100 `
b111111000 0
b111111000 Y
b111111000 a
0$
0%
b101 .
b101 @
b101 H
b1100011 Q
b101 U
b101 L
b101 B
1C
b10101 |
b1 '
b1 I
b1 W
b1 q
b1111 s
b101 (
b101 F
b101 p
b1110 r
b1100011 M
b11111110111101110101101011100011 )
b11111110111101110101101011100011 P
b11111110111101110101101011100011 S
b101 j
b1000001000 1
b1000001000 \
b1000001000 ^
b1000001000 b
b1000000100 2
b1000000100 G
b1000000100 T
b1000000100 Z
b1000000100 [
b1000000100 ]
1!
#60
0!
#65
b10 ,
b10 >
b10 E
b1 #
b1 e
b1 {
1/
b10 =
b10 D
b10 N
0:
b1 +
b1 A
b1 V
b1 _
b1 c
09
b10100000000 O
bx *
bx J
bx R
bx `
b111111100 0
b111111100 Y
b111111100 a
1$
1%
b0 .
b0 @
b0 H
b110011 Q
b0 U
b0 L
b0 B
0C
b1010 |
b0 (
b0 F
b0 p
b1010 r
b110011 M
b111101010000010100110011 )
b111101010000010100110011 P
b111101010000010100110011 S
b111111100 1
b111111100 \
b111111100 ^
b111111100 b
b111111000 2
b111111000 G
b111111000 T
b111111000 Z
b111111000 [
b111111000 ]
1!
#70
0!
#75
b10 #
b10 e
b10 {
1<
b11 =
b11 D
b11 N
b1 *
b1 J
b1 R
b1 `
b11110000000 O
b10 +
b10 A
b10 V
b10 _
b10 c
b1000000000 0
b1000000000 Y
b1000000000 a
b1 -
b1 ?
b1 K
b10011 Q
b1111 |
b0 '
b0 I
b0 W
b0 q
b1 s
b1111 r
b10011 M
b101111000011110010011 )
b101111000011110010011 P
b101111000011110010011 S
0$
0%
b1 .
b1 @
b1 H
b1 (
b1 F
b1 p
b1 f
b1000000000 1
b1000000000 \
b1000000000 ^
b1000000000 b
b111111100 2
b111111100 G
b111111100 T
b111111100 Z
b111111100 [
b111111100 ]
1!
#80
0!
#85
b101 #
b101 e
b101 {
b101 -
b101 ?
b101 K
b101 *
b101 J
b101 R
b101 `
b101 +
b101 A
b101 V
b101 _
b101 c
b1000000100 0
b1000000100 Y
b1000000100 a
1$
1%
b1110 |
b101 s
b0 r
b10100000000011100010011 )
b10100000000011100010011 P
b10100000000011100010011 S
b0 .
b0 @
b0 H
b1000000100 1
b1000000100 \
b1000000100 ^
b1000000100 b
b1000000000 2
b1000000000 G
b1000000000 T
b1000000000 Z
b1000000000 [
b1000000000 ]
b0 (
b0 F
b0 p
b10 k
1!
#90
0!
#95
19
b11 #
b11 e
b11 {
0"
0/
0<
b1 =
b1 D
b1 N
1:
b10 -
b10 ?
b10 K
b11 +
b11 A
b11 V
b11 _
b11 c
b110 ,
b110 >
b110 E
b10010000 O
b11111111111111111111111111110100 *
b11111111111111111111111111110100 J
b11111111111111111111111111110100 R
b11111111111111111111111111110100 `
b111111000 0
b111111000 Y
b111111000 a
0$
0%
b101 .
b101 @
b101 H
b1100011 Q
b101 U
b101 L
b101 B
1C
b10101 |
b10 '
b10 I
b10 W
b10 q
b1111 s
b101 (
b101 F
b101 p
b1110 r
b1100011 M
b11111110111101110101101011100011 )
b11111110111101110101101011100011 P
b11111110111101110101101011100011 S
b1000001000 1
b1000001000 \
b1000001000 ^
b1000001000 b
b1000000100 2
b1000000100 G
b1000000100 T
b1000000100 Z
b1000000100 [
b1000000100 ]
1!
#100
0!
#105
b10 ,
b10 >
b10 E
b11 #
b11 e
b11 {
1/
b10 =
b10 D
b10 N
0:
b11 +
b11 A
b11 V
b11 _
b11 c
09
b10100000000 O
bx *
bx J
bx R
bx `
b111111100 0
b111111100 Y
b111111100 a
1$
1%
b1 .
b1 @
b1 H
b110011 Q
b0 U
b0 L
b0 B
0C
b1010 |
b1 (
b1 F
b1 p
b1010 r
b110011 M
b111101010000010100110011 )
b111101010000010100110011 P
b111101010000010100110011 S
b111111100 1
b111111100 \
b111111100 ^
b111111100 b
b111111000 2
b111111000 G
b111111000 T
b111111000 Z
b111111000 [
b111111000 ]
1!
#110
0!
#115
b11 #
b11 e
b11 {
1<
b11 =
b11 D
b11 N
b1 *
b1 J
b1 R
b1 `
b11110000000 O
b11 +
b11 A
b11 V
b11 _
b11 c
b1000000000 0
b1000000000 Y
b1000000000 a
b1 -
b1 ?
b1 K
b10011 Q
b1111 |
b0 '
b0 I
b0 W
b0 q
b1 s
b1111 r
b10011 M
b101111000011110010011 )
b101111000011110010011 P
b101111000011110010011 S
0$
0%
b10 .
b10 @
b10 H
b10 (
b10 F
b10 p
b11 f
b1000000000 1
b1000000000 \
b1000000000 ^
b1000000000 b
b111111100 2
b111111100 G
b111111100 T
b111111100 Z
b111111100 [
b111111100 ]
1!
#120
0!
#125
b101 #
b101 e
b101 {
b101 -
b101 ?
b101 K
b101 *
b101 J
b101 R
b101 `
b101 +
b101 A
b101 V
b101 _
b101 c
b1000000100 0
b1000000100 Y
b1000000100 a
1$
1%
b1110 |
b101 s
b0 r
b10100000000011100010011 )
b10100000000011100010011 P
b10100000000011100010011 S
b0 .
b0 @
b0 H
b1000000100 1
b1000000100 \
b1000000100 ^
b1000000100 b
b1000000000 2
b1000000000 G
b1000000000 T
b1000000000 Z
b1000000000 [
b1000000000 ]
b0 (
b0 F
b0 p
b11 k
1!
#130
0!
#135
19
b10 #
b10 e
b10 {
0"
0/
0<
b1 =
b1 D
b1 N
1:
b11 -
b11 ?
b11 K
b10 +
b10 A
b10 V
b10 _
b10 c
b110 ,
b110 >
b110 E
b10010000 O
b11111111111111111111111111110100 *
b11111111111111111111111111110100 J
b11111111111111111111111111110100 R
b11111111111111111111111111110100 `
b111111000 0
b111111000 Y
b111111000 a
0$
0%
b101 .
b101 @
b101 H
b1100011 Q
b101 U
b101 L
b101 B
1C
b10101 |
b11 '
b11 I
b11 W
b11 q
b1111 s
b101 (
b101 F
b101 p
b1110 r
b1100011 M
b11111110111101110101101011100011 )
b11111110111101110101101011100011 P
b11111110111101110101101011100011 S
b1000001000 1
b1000001000 \
b1000001000 ^
b1000001000 b
b1000000100 2
b1000000100 G
b1000000100 T
b1000000100 Z
b1000000100 [
b1000000100 ]
1!
#140
0!
#145
b10 ,
b10 >
b10 E
b110 #
b110 e
b110 {
1/
b10 =
b10 D
b10 N
0:
0"
b110 +
b110 A
b110 V
b110 _
b110 c
09
b10100000000 O
bx *
bx J
bx R
bx `
b111111100 0
b111111100 Y
b111111100 a
b11 .
b11 @
b11 H
b110011 Q
b0 U
b0 L
b0 B
0C
b1010 |
b11 (
b11 F
b11 p
b1010 r
b110011 M
b111101010000010100110011 )
b111101010000010100110011 P
b111101010000010100110011 S
b111111100 1
b111111100 \
b111111100 ^
b111111100 b
b111111000 2
b111111000 G
b111111000 T
b111111000 Z
b111111000 [
b111111000 ]
1!
#150
0!
#155
b100 #
b100 e
b100 {
1<
b11 =
b11 D
b11 N
b1 *
b1 J
b1 R
b1 `
b11110000000 O
b100 +
b100 A
b100 V
b100 _
b100 c
b1000000000 0
b1000000000 Y
b1000000000 a
b1 -
b1 ?
b1 K
b10011 Q
b1111 |
b0 '
b0 I
b0 W
b0 q
b1 s
b1111 r
b10011 M
b101111000011110010011 )
b101111000011110010011 P
b101111000011110010011 S
b11 .
b11 @
b11 H
b11 (
b11 F
b11 p
b110 f
b1000000000 1
b1000000000 \
b1000000000 ^
b1000000000 b
b111111100 2
b111111100 G
b111111100 T
b111111100 Z
b111111100 [
b111111100 ]
1!
#160
0!
#165
b101 #
b101 e
b101 {
b101 -
b101 ?
b101 K
b101 *
b101 J
b101 R
b101 `
b101 +
b101 A
b101 V
b101 _
b101 c
b1000000100 0
b1000000100 Y
b1000000100 a
1$
1%
b1110 |
b101 s
b0 r
b10100000000011100010011 )
b10100000000011100010011 P
b10100000000011100010011 S
b0 .
b0 @
b0 H
b1000000100 1
b1000000100 \
b1000000100 ^
b1000000100 b
b1000000000 2
b1000000000 G
b1000000000 T
b1000000000 Z
b1000000000 [
b1000000000 ]
b0 (
b0 F
b0 p
b100 k
1!
#170
0!
#175
19
b1 #
b1 e
b1 {
0"
0/
0<
b1 =
b1 D
b1 N
1:
b100 -
b100 ?
b100 K
b1 +
b1 A
b1 V
b1 _
b1 c
b110 ,
b110 >
b110 E
b10010000 O
b11111111111111111111111111110100 *
b11111111111111111111111111110100 J
b11111111111111111111111111110100 R
b11111111111111111111111111110100 `
b111111000 0
b111111000 Y
b111111000 a
0$
0%
b101 .
b101 @
b101 H
b1100011 Q
b101 U
b101 L
b101 B
1C
b10101 |
b100 '
b100 I
b100 W
b100 q
b1111 s
b101 (
b101 F
b101 p
b1110 r
b1100011 M
b11111110111101110101101011100011 )
b11111110111101110101101011100011 P
b11111110111101110101101011100011 S
b1000001000 1
b1000001000 \
b1000001000 ^
b1000001000 b
b1000000100 2
b1000000100 G
b1000000100 T
b1000000100 Z
b1000000100 [
b1000000100 ]
1!
#180
0!
#185
b10 ,
b10 >
b10 E
b1010 #
b1010 e
b1010 {
1/
b10 =
b10 D
b10 N
0:
b1010 +
b1010 A
b1010 V
b1010 _
b1010 c
09
b10100000000 O
bx *
bx J
bx R
bx `
b111111100 0
b111111100 Y
b111111100 a
b110 .
b110 @
b110 H
b110011 Q
b0 U
b0 L
b0 B
0C
b1010 |
b110 (
b110 F
b110 p
b1010 r
b110011 M
b111101010000010100110011 )
b111101010000010100110011 P
b111101010000010100110011 S
b111111100 1
b111111100 \
b111111100 ^
b111111100 b
b111111000 2
b111111000 G
b111111000 T
b111111000 Z
b111111000 [
b111111000 ]
1!
#190
0!
#195
b101 #
b101 e
b101 {
1<
b11 =
b11 D
b11 N
b1 *
b1 J
b1 R
b1 `
b11110000000 O
b101 +
b101 A
b101 V
b101 _
b101 c
b1000000000 0
b1000000000 Y
b1000000000 a
b1 -
b1 ?
b1 K
b10011 Q
b1111 |
b0 '
b0 I
b0 W
b0 q
b1 s
b1111 r
b10011 M
b101111000011110010011 )
b101111000011110010011 P
b101111000011110010011 S
b100 .
b100 @
b100 H
b100 (
b100 F
b100 p
b1010 f
b1000000000 1
b1000000000 \
b1000000000 ^
b1000000000 b
b111111100 2
b111111100 G
b111111100 T
b111111100 Z
b111111100 [
b111111100 ]
1!
#200
0!
#205
b101 #
b101 e
b101 {
b101 -
b101 ?
b101 K
b101 *
b101 J
b101 R
b101 `
b101 +
b101 A
b101 V
b101 _
b101 c
b1000000100 0
b1000000100 Y
b1000000100 a
1$
1%
b1110 |
b101 s
b0 r
b10100000000011100010011 )
b10100000000011100010011 P
b10100000000011100010011 S
b0 .
b0 @
b0 H
b1000000100 1
b1000000100 \
b1000000100 ^
b1000000100 b
b1000000000 2
b1000000000 G
b1000000000 T
b1000000000 Z
b1000000000 [
b1000000000 ]
b0 (
b0 F
b0 p
b101 k
1!
#210
0!
#215
19
b0 #
b0 e
b0 {
1"
0/
0<
b1 =
b1 D
b1 N
1:
b101 -
b101 ?
b101 K
b0 +
b0 A
b0 V
b0 _
b0 c
b110 ,
b110 >
b110 E
b10010000 O
b11111111111111111111111111110100 *
b11111111111111111111111111110100 J
b11111111111111111111111111110100 R
b11111111111111111111111111110100 `
b111111000 0
b111111000 Y
b111111000 a
0$
0%
b101 .
b101 @
b101 H
b1100011 Q
b101 U
b101 L
b101 B
1C
b10101 |
b101 '
b101 I
b101 W
b101 q
b1111 s
b101 (
b101 F
b101 p
b1110 r
b1100011 M
b11111110111101110101101011100011 )
b11111110111101110101101011100011 P
b11111110111101110101101011100011 S
b1000001000 1
b1000001000 \
b1000001000 ^
b1000001000 b
b1000000100 2
b1000000100 G
b1000000100 T
b1000000100 Z
b1000000100 [
b1000000100 ]
1!
#220
0!
#225
b10 ,
b10 >
b10 E
09
b1111 #
b1111 e
b1111 {
1/
b10 =
b10 D
b10 N
0:
0"
b1111 +
b1111 A
b1111 V
b1111 _
b1111 c
b10100000000 O
bx *
bx J
bx R
bx `
b111111100 0
b111111100 Y
b111111100 a
b1010 .
b1010 @
b1010 H
b110011 Q
b0 U
b0 L
b0 B
0C
b1010 |
b1010 (
b1010 F
b1010 p
b1010 r
b110011 M
b111101010000010100110011 )
b111101010000010100110011 P
b111101010000010100110011 S
b111111100 1
b111111100 \
b111111100 ^
b111111100 b
b111111000 2
b111111000 G
b111111000 T
b111111000 Z
b111111000 [
b111111000 ]
1!
#230
0!
#235
b110 #
b110 e
b110 {
1<
b11 =
b11 D
b11 N
b1 *
b1 J
b1 R
b1 `
b11110000000 O
b110 +
b110 A
b110 V
b110 _
b110 c
b1000000000 0
b1000000000 Y
b1000000000 a
b1 -
b1 ?
b1 K
b10011 Q
b1111 |
b0 '
b0 I
b0 W
b0 q
b1 s
b1111 r
b10011 M
b101111000011110010011 )
b101111000011110010011 P
b101111000011110010011 S
b101 .
b101 @
b101 H
b101 (
b101 F
b101 p
b1111 f
b1000000000 1
b1000000000 \
b1000000000 ^
b1000000000 b
b111111100 2
b111111100 G
b111111100 T
b111111100 Z
b111111100 [
b111111100 ]
1!
#240
0!
#245
b101 #
b101 e
b101 {
b101 -
b101 ?
b101 K
b101 *
b101 J
b101 R
b101 `
b101 +
b101 A
b101 V
b101 _
b101 c
b1000000100 0
b1000000100 Y
b1000000100 a
1$
1%
b1110 |
b101 s
b0 r
b10100000000011100010011 )
b10100000000011100010011 P
b10100000000011100010011 S
b0 .
b0 @
b0 H
b1000000100 1
b1000000100 \
b1000000100 ^
b1000000100 b
b1000000000 2
b1000000000 G
b1000000000 T
b1000000000 Z
b1000000000 [
b1000000000 ]
b0 (
b0 F
b0 p
b110 k
1!
#250
0!
#255
09
b11111111111111111111111111111111 #
b11111111111111111111111111111111 e
b11111111111111111111111111111111 {
0"
0/
0<
b1 =
b1 D
b1 N
1:
b110 -
b110 ?
b110 K
b11111111111111111111111111111111 +
b11111111111111111111111111111111 A
b11111111111111111111111111111111 V
b11111111111111111111111111111111 _
b11111111111111111111111111111111 c
b110 ,
b110 >
b110 E
b10010000 O
b11111111111111111111111111110100 *
b11111111111111111111111111110100 J
b11111111111111111111111111110100 R
b11111111111111111111111111110100 `
b1000001000 0
b1000001000 Y
b1000001000 a
1$
1%
b101 .
b101 @
b101 H
b1100011 Q
b101 U
b101 L
b101 B
1C
b10101 |
b110 '
b110 I
b110 W
b110 q
b1111 s
b101 (
b101 F
b101 p
b1110 r
b1100011 M
b11111110111101110101101011100011 )
b11111110111101110101101011100011 P
b11111110111101110101101011100011 S
b1000001000 1
b1000001000 \
b1000001000 ^
b1000001000 b
b1000000100 2
b1000000100 G
b1000000100 T
b1000000100 Z
b1000000100 [
b1000000100 ]
1!
#260
0!
#265
b10 ,
b10 >
b10 E
b101 #
b101 e
b101 {
1/
1<
b11 =
b11 D
b11 N
0:
0"
b101 +
b101 A
b101 V
b101 _
b101 c
b11110000000 O
b101 *
b101 J
b101 R
b101 `
b1000001100 0
b1000001100 Y
b1000001100 a
1$
1%
b101 -
b101 ?
b101 K
b0 .
b0 @
b0 H
b10011 Q
b0 U
b0 L
b0 B
0C
b1011 |
b0 '
b0 I
b0 W
b0 q
b101 s
b0 (
b0 F
b0 p
b0 r
b10011 M
b10100000000010110010011 )
b10100000000010110010011 P
b10100000000010110010011 S
b1000001100 1
b1000001100 \
b1000001100 ^
b1000001100 b
b1000001000 2
b1000001000 G
b1000001000 T
b1000001000 Z
b1000001000 [
b1000001000 ]
1!
#270
0!
#275
b1000010000 #
b1000010000 e
b1000010000 {
1"
b0 +
b0 A
b0 V
b0 _
b0 c
x<
bx =
bx D
bx N
17
0%
b11111111111111111111111111010000 -
b11111111111111111111111111010000 ?
b11111111111111111111111111010000 K
b0 ,
b0 >
b0 E
b1xxx0001000 O
b11111111111111111111111111010000 *
b11111111111111111111111111010000 J
b11111111111111111111111111010000 R
b11111111111111111111111111010000 `
b111011100 0
b111011100 Y
b111011100 a
b1101111 Q
b111 U
b111 L
b111 B
1C
b1 |
b10001 s
b11111 r
b1101111 M
b11111101000111111111000011101111 )
b11111101000111111111000011101111 P
b11111101000111111111000011101111 S
b101 g
b1000010000 1
b1000010000 \
b1000010000 ^
b1000010000 b
b1000001100 2
b1000001100 G
b1000001100 T
b1000001100 Z
b1000001100 [
b1000001100 ]
1!
#280
0!
#285
b10 ,
b10 >
b10 E
0"
b10100 +
b10100 A
b10100 V
b10100 _
b10100 c
0<
b10 =
b10 D
b10 N
07
0$
0%
b101 -
b101 ?
b101 K
b10100000000 O
bx *
bx J
bx R
bx `
b10100 #
b10100 e
b10100 {
b111100000 0
b111100000 Y
b111100000 a
b1111 .
b1111 @
b1111 H
b110011 Q
b0 U
b0 L
b0 B
0C
b1010 |
b101 '
b101 I
b101 W
b101 q
b1011 s
b1111 (
b1111 F
b1111 p
b1010 r
b110011 M
b101101010000010100110011 )
b101101010000010100110011 P
b101101010000010100110011 S
b111100000 1
b111100000 \
b111100000 ^
b111100000 b
b111011100 2
b111011100 G
b111011100 T
b111011100 Z
b111011100 [
b111011100 ]
b1000010000 o
1!
#290
0!
#295
b111100100 #
b111100100 e
b111100100 {
1<
b0 =
b0 D
b0 N
16
b0 *
b0 J
b0 R
b0 `
b11000000100 O
b1000010000 +
b1000010000 A
b1000010000 V
b1000010000 _
b1000010000 c
b1000010000 0
b1000010000 Y
b1000010000 a
b0 -
b0 ?
b0 K
b1100111 Q
b0 |
b0 '
b0 I
b0 W
b0 q
b0 s
b1 r
b1100111 M
b1000000001100111 )
b1000000001100111 P
b1000000001100111 S
b1000010000 .
b1000010000 @
b1000010000 H
b1000010000 (
b1000010000 F
b1000010000 p
b10100 f
b111100100 1
b111100100 \
b111100100 ^
b111100100 b
b111100000 2
b111100000 G
b111100000 T
b111100000 Z
b111100000 [
b111100000 ]
1!
#300
0!
#305
b1000010100 0
b1000010100 Y
b1000010100 a
14
06
b1100 -
b1100 ?
b1100 K
b11011111100 +
b11011111100 A
b11011111100 V
b11011111100 _
b11011111100 c
b11001000000 O
b1100 *
b1100 J
b1100 R
b1100 `
bx #
bx e
bx {
b11011110000 .
b11011110000 @
b11011110000 H
b11 Q
b10 U
b10 L
b10 B
b1 |
b1100 s
b11011110000 (
b11011110000 F
b11011110000 p
b10 r
b11 M
b110000010010000010000011 )
b110000010010000010000011 P
b110000010010000010000011 S
b1000010100 1
b1000010100 \
b1000010100 ^
b1000010100 b
b1000010000 2
b1000010000 G
b1000010000 T
b1000010000 Z
b1000010000 [
b1000010000 ]
1!
#306
b0 #
b0 e
b0 {
b0 &
b0 X
b0 d
#310
0!
#315
b11100000000 #
b11100000000 e
b11100000000 {
b11100000000 +
b11100000000 A
b11100000000 V
b11100000000 _
b11100000000 c
b11 =
b11 D
b11 N
04
b10000 -
b10000 ?
b10000 K
b11110000000 O
b10000 *
b10000 J
b10000 R
b10000 `
b1000011000 0
b1000011000 Y
b1000011000 a
b10011 Q
b0 U
b0 L
b0 B
b10 |
b10000 s
b10011 M
b1000000010000000100010011 )
b1000000010000000100010011 P
b1000000010000000100010011 S
b0 o
b1000011000 1
b1000011000 \
b1000011000 ^
b1000011000 b
b1000010100 2
b1000010100 G
b1000010100 T
b1000010100 Z
b1000010100 [
b1000010100 ]
1!
#320
0!
#325
1"
b1000011100 #
b1000011100 e
b1000011100 {
b0 =
b0 D
b0 N
16
b0 -
b0 ?
b0 K
b11000000100 O
b0 *
b0 J
b0 R
b0 `
b0 +
b0 A
b0 V
b0 _
b0 c
b0 0
b0 Y
b0 a
0$
0%
b1100111 Q
b0 |
b0 s
b1 r
b1100111 M
b1000000001100111 )
b1000000001100111 P
b1000000001100111 S
b0 .
b0 @
b0 H
b1000011100 1
b1000011100 \
b1000011100 ^
b1000011100 b
b1000011000 2
b1000011000 G
b1000011000 T
b1000011000 Z
b1000011000 [
b1000011000 ]
b0 (
b0 F
b0 p
b11100000000 v
1!
#330
0!
